module classify

go 1.17

require (
	github.com/labstack/echo/v4 v4.6.1
	github.com/tebeka/snowball v0.4.2
)

require (
	github.com/chzyer/readline v0.0.0-20180603132655-2972be24d48e // indirect
	github.com/golang-jwt/jwt v3.2.2+incompatible // indirect
	github.com/google/pprof v0.0.0-20211108044417-e9b028704de0 // indirect
	github.com/ianlancetaylor/demangle v0.0.0-20210905161508-09a460cdf81d // indirect
	github.com/labstack/gommon v0.3.0 // indirect
	github.com/mattn/go-colorable v0.1.8 // indirect
	github.com/mattn/go-isatty v0.0.14 // indirect
	github.com/valyala/bytebufferpool v1.0.0 // indirect
	github.com/valyala/fasttemplate v1.2.1 // indirect
	golang.org/x/crypto v0.0.0-20210817164053-32db794688a5 // indirect
	golang.org/x/net v0.0.0-20210913180222-943fd674d43e // indirect
	golang.org/x/sys v0.0.0-20211117180635-dee7805ff2e1 // indirect
	golang.org/x/text v0.3.7 // indirect
	golang.org/x/time v0.0.0-20201208040808-7e3f01d25324 // indirect
)
